<svg width="48" height="35" viewBox="0 0 48 35" fill="none" xmlns="http://www.w3.org/2000/svg">
    <path d="M19.408 0.4263C20.2465 1.04326 20.3195 2.10336 19.5702 2.7943L5.54557 15.7231L45.0124 15.7231C46.1369 15.7231 47.0488 16.4739 47.0488 17.4002C47.0488 18.3262 46.1372 19.0772 45.0124 19.0772L5.54557 19.0772L19.57 32.006C20.3193 32.6966 20.2462 33.7568 19.4079 34.374C18.569 34.9909 17.2816 34.9313 16.5325 34.2406L1.29515 20.1934C0.431313 19.3973 -0.000366211 18.399 -0.000366211 17.4003C-0.000366211 16.402 0.431316 15.4035 1.29468 14.6072L16.5325 0.559986C17.2821 -0.130959 18.5695 -0.190659 19.408 0.4263Z" fill="#4F4C4C"/>
</svg>
