<svg width="17" height="17" viewBox="0 0 17 17" fill="none" xmlns="http://www.w3.org/2000/svg">
    <path d="M16.7685 7.26782L15.3518 5.98005L8.97671 0.184356C8.70683 -0.0614519 8.29314 -0.0614519 8.02326 0.184356L1.64813 5.98005L0.231456 7.26782C-0.0575502 7.53063 -0.0788006 7.97902 0.184007 8.26872C0.447513 8.55842 0.896594 8.57967 1.1849 8.31547L1.41653 8.10509V16.2922C1.41653 16.6832 1.73316 17.0005 2.12487 17.0005H5.66662V11.3338C5.66662 9.77116 6.9374 8.50038 8.5 8.50038C10.0626 8.50038 11.3334 9.77116 11.3334 11.3338V17.0006H14.8751C15.2668 17.0006 15.5835 16.6832 15.5835 16.2922V8.10509L15.8151 8.31547C15.9511 8.43942 16.1218 8.50035 16.2918 8.50035C16.4845 8.50035 16.6764 8.42172 16.816 8.26872C17.0788 7.97902 17.0576 7.53063 16.7685 7.26782Z" fill="black"/>
    <path d="M8.49971 9.91675C7.7184 9.91675 7.08301 10.5521 7.08301 11.3335V17.0002H9.91639V11.3334C9.91639 10.5521 9.281 9.91675 8.49971 9.91675Z" fill="black"/>
</svg>
