<svg width="18" height="18" viewBox="0 0 18 18" fill="none" xmlns="http://www.w3.org/2000/svg">
    <path d="M12.4137 6.61469V3.17172C12.4137 1.42293 10.8821 0 8.99987 0C7.11762 0 5.58607 1.42293 5.58607 3.17172V6.61469C3.90524 7.72634 2.79297 9.63124 2.79297 11.7931C2.79297 15.2156 5.57738 18 8.99987 18C12.4223 18 15.2068 15.2156 15.2068 11.7931C15.2068 9.63124 14.0945 7.72634 12.4137 6.61469ZM6.20676 6.25562V3.17172C6.20676 1.76524 7.45962 0.62069 8.99987 0.62069C10.5401 0.62069 11.793 1.76524 11.793 3.17172V6.25593C11.7346 6.22645 11.675 6.20038 11.6161 6.17276C11.4941 6.11565 11.3703 6.06228 11.2443 6.01293C11.1633 5.98128 11.082 5.95148 11 5.92324C10.9193 5.89562 10.8393 5.868 10.7573 5.84379C10.6217 5.80345 10.4846 5.769 10.3465 5.73797C10.2866 5.72462 10.2263 5.7119 10.1658 5.7001C10.0035 5.66876 9.84028 5.64331 9.6758 5.625C9.63856 5.62097 9.60131 5.61848 9.56407 5.61507C9.37631 5.59738 9.18856 5.58621 8.99987 5.58621C8.81118 5.58621 8.62342 5.59738 8.43628 5.61476C8.39904 5.61817 8.36149 5.62066 8.32455 5.62469C8.16007 5.643 7.99683 5.66845 7.83452 5.69979C7.774 5.71128 7.7138 5.72431 7.6539 5.73766C7.5158 5.76869 7.37862 5.80314 7.243 5.84348C7.16107 5.86769 7.08069 5.89562 7.00031 5.92293C6.91838 5.95117 6.83676 5.98097 6.75607 6.01262C6.62976 6.06166 6.50624 6.11534 6.38428 6.17245C6.32469 6.20007 6.26511 6.22614 6.20676 6.25562ZM10.2412 12.4138C10.2412 13.0984 9.68449 13.6552 8.99987 13.6552C8.31524 13.6552 7.75849 13.0984 7.75849 12.4138V10.5517C7.75849 9.8671 8.31524 9.31034 8.99987 9.31034C9.68449 9.31034 10.2412 9.8671 10.2412 10.5517V12.4138Z" fill="#4F4C4C"/>
</svg>
