<svg width="18" height="18" viewBox="0 0 18 18" fill="none" xmlns="http://www.w3.org/2000/svg">
    <g clip-path="url(#clip0)">
        <path fill-rule="evenodd" clip-rule="evenodd" d="M7.10515 11.8392C6.92873 11.8392 6.72088 11.815 6.55171 11.8005C6.07248 11.7422 5.6048 11.6118 5.1645 11.4138C4.57293 11.1475 4.04254 10.7623 3.60637 10.282C3.17021 9.80179 2.83761 9.23688 2.62931 8.62248C2.34087 7.79302 2.29476 6.89853 2.49639 6.04381C2.56743 5.73948 2.66695 5.44253 2.79365 5.15686C3.1692 4.32681 3.77559 3.62229 4.54049 3.12736C5.30539 2.63242 6.19651 2.36795 7.10756 2.3655C7.28399 2.3655 7.49183 2.38967 7.661 2.40176C7.83092 2.42085 7.99958 2.4499 8.1661 2.48875C8.61461 2.5903 9.0455 2.75809 9.44457 2.98661C9.56986 3.05586 9.69092 3.13253 9.80708 3.2162C10.7723 3.88811 11.4529 4.89521 11.7163 6.04139C11.7564 6.20685 11.7854 6.37478 11.8033 6.54408C11.8532 6.91135 11.8532 7.28367 11.8033 7.65094C11.7285 8.27835 11.5297 8.88463 11.2185 9.43451C11.1411 9.5626 11.0735 9.67619 10.9913 9.79944C10.8296 10.0288 10.6485 10.2439 10.4499 10.4423C10.0466 10.8485 9.57128 11.1763 9.04822 11.409C8.43956 11.6813 7.78157 11.8261 7.11481 11.8343L7.10515 11.8392ZM7.30816 -0.00291936C6.65697 -0.0291924 6.00548 0.0408398 5.37475 0.204918C4.93772 0.312573 4.51264 0.46398 4.10596 0.65685C3.9102 0.755937 3.73136 0.838112 3.54769 0.949283L3.28425 1.1112C2.84623 1.38675 2.44085 1.71105 2.07587 2.0779C1.16817 2.98691 0.522739 4.12414 0.207727 5.36952C0.0781195 5.86545 0.00674541 6.3748 -0.00494876 6.88725C-0.0323708 7.54645 0.0376608 8.20608 0.202889 8.84482C0.256057 9.05749 0.328562 9.29917 0.401064 9.49735C0.693721 10.2883 1.11868 11.0238 1.65778 11.6724C1.85296 11.9079 2.06629 12.1277 2.2958 12.3298C2.33447 12.3636 2.35864 12.3975 2.39731 12.4313L3.00875 12.9146C3.18517 13.0331 3.34225 13.137 3.52593 13.2482C4.5459 13.8432 5.69778 14.1754 6.87797 14.2149C7.67411 14.2464 8.46933 14.1326 9.22464 13.8789C9.69715 13.7253 10.153 13.5245 10.5853 13.2796C10.6445 13.2352 10.7106 13.2009 10.781 13.1781C10.8753 13.2409 14.7687 17.1561 15.1312 17.5282C15.455 17.8521 15.5445 18.0116 16.052 18.0116C16.1732 17.9996 16.2908 17.9635 16.3979 17.9054C16.505 17.8473 16.5994 17.7684 16.6755 17.6732C16.8737 17.4751 17.7655 16.6123 17.8694 16.4455C17.9663 16.3041 18.01 16.1328 17.9926 15.9622V15.9162C17.9926 15.5707 17.6978 15.3362 17.5093 15.1526C17.1468 14.79 13.2365 10.858 13.1398 10.8024C13.4399 10.318 13.6832 9.80061 13.8648 9.26051C14.3444 7.78597 14.3214 6.19403 13.7996 4.73393C13.5089 3.94201 13.0838 3.20619 12.5429 2.55885C12.4027 2.39693 12.2794 2.25675 12.1272 2.1045L11.8033 1.79999C11.2925 1.35437 10.7233 0.980362 10.1116 0.688269C9.24044 0.279422 8.29427 0.0548152 7.33232 0.0284996H7.31299L7.30816 -0.00291936Z" fill="#4F4C4C"/>
    </g>
    <defs>
        <clipPath id="clip0">
            <rect width="18" height="18" fill="white"/>
        </clipPath>
    </defs>
</svg>
