<svg width="45" height="45" viewBox="0 0 45 45" fill="none" xmlns="http://www.w3.org/2000/svg">
    <path d="M18.6858 22.1675L0.723194 4.20494C-0.239834 3.24191 -0.239834 1.6853 0.723194 0.722271C1.68622 -0.240757 3.24283 -0.240757 4.20586 0.722271L22.1684 18.6848L40.131 0.722271C41.094 -0.240757 42.6506 -0.240757 43.6137 0.722271C44.5767 1.6853 44.5767 3.24191 43.6137 4.20494L25.6511 22.1675L43.6137 40.1301C44.5767 41.0931 44.5767 42.6497 43.6137 43.6127C43.1334 44.093 42.5029 44.3344 41.8723 44.3344C41.2418 44.3344 40.6113 44.093 40.131 43.6127L22.1684 25.6502L4.20586 43.6127C3.72558 44.093 3.09505 44.3344 2.46453 44.3344C1.834 44.3344 1.20348 44.093 0.723194 43.6127C-0.239834 42.6497 -0.239834 41.0931 0.723194 40.1301L18.6858 22.1675Z" fill="#000000"/>
</svg>
