<svg width="23" height="23" viewBox="0 0 23 23" fill="none" xmlns="http://www.w3.org/2000/svg">
    <path d="M11.4997 12.1323C14.85 12.1323 17.5659 9.41637 17.5659 6.06613C17.5659 2.7159 14.85 0 11.4997 0C8.14949 0 5.43359 2.7159 5.43359 6.06613C5.43359 9.41637 8.14949 12.1323 11.4997 12.1323Z" fill="#4F4C4C"/>
    <path d="M14.9649 12.9829C13.9313 13.5381 12.7528 13.8569 11.5001 13.8664C10.2475 13.8569 9.0682 13.5381 8.03477 12.9829C5.90134 14.8934 2.64844 17.0215 2.64844 23H11.442H11.5575H20.351C20.3514 17.0215 17.0987 14.8934 14.9649 12.9829Z" fill="#4F4C4C"/>
</svg>
