<svg width="17" height="14" viewBox="0 0 17 14" fill="none" xmlns="http://www.w3.org/2000/svg">
<path d="M16.9787 4.36211C16.7273 1.83431 14.7161 0 12.1951 0C10.7214 0 9.35755 0.622432 8.46315 1.6503C7.58433 0.611636 6.26717 0 4.81053 0C2.298 0 0.290393 1.82352 0.0290858 4.33799C0.002165 4.50107 -0.063693 5.08287 0.174976 5.994C0.530489 7.34103 1.3484 8.56433 2.54802 9.53828L8.01211 13.842C8.14525 13.9473 8.31308 14 8.47949 14C8.64519 14 8.8116 13.948 8.94474 13.8439L14.5016 9.50021C15.3216 8.73374 16.4554 7.53584 16.8335 5.98324C17.075 4.99091 16.9844 4.38876 16.9787 4.36211Z" fill="#927575"/>
</svg>
