<svg width="15" height="15" viewBox="0 0 15 15" fill="none" xmlns="http://www.w3.org/2000/svg">
    <g clip-path="url(#clip0)">
        <path fill-rule="evenodd" clip-rule="evenodd" d="M7.17029 14.4615C7.35427 13.7464 7.08206 13.0761 7.96137 11.5777C8.20478 11.1628 8.54961 10.6993 8.86827 10.3374C9.08733 10.0887 9.39362 9.76012 9.63906 9.55307C9.69788 9.50347 9.74758 9.46641 9.7993 9.41406C9.86867 9.34406 9.90376 9.32798 9.97131 9.26681C10.0186 9.22407 10.0774 9.17387 10.1336 9.13074C10.1831 9.09348 10.2632 9.04152 10.3064 8.99211C10.3326 8.15489 10.3125 7.26512 10.3078 6.42359V1.26693C10.3078 1.04733 10.3078 0.89792 10.2167 0.715182C10.151 0.583423 10.0068 0.446566 9.90255 0.372254C9.74311 0.25873 9.16888 -0.012044 8.92263 0.0367775C8.82425 0.0367775 8.68835 0.0118771 8.55204 0.0120726H4.09261C3.65711 0.0120726 2.86766 -0.0287094 2.49362 0.0393267C2.07171 0.0250139 1.59098 1.24144 1.48084 1.6224C1.05751 3.08705 0.736215 4.18387 0.381246 5.69656C0.295444 6.06223 -0.0447168 7.60903 0.00578976 7.91961C0.025775 8.00016 0.025775 8.08414 0.00578976 8.1647C-0.0459347 8.50233 0.269481 8.87898 0.688142 8.97113C1.01613 9.04329 1.76319 9.00133 2.14676 9.0027C2.7419 9.00486 4.73642 8.9727 5.14352 9.00721C5.10437 9.2474 5.00356 9.55837 4.94392 9.81385C4.73865 10.6934 4.6064 11.6014 4.65407 12.5171C4.6991 13.3816 4.92912 14.1094 5.53277 14.658C6.02182 15.1023 6.98348 15.1893 7.17029 14.4615Z" fill="#927575"/>
        <path fill-rule="evenodd" clip-rule="evenodd" d="M14.9704 8.55741V8.44604C15.0033 8.28526 14.5909 2.37746 14.5647 1.87434C14.5465 1.51651 14.5217 1.15163 14.4958 0.794188C14.483 0.61949 14.498 0.419694 14.4232 0.274014C14.3674 0.165391 14.2173 0.0348072 14.057 0.0397091C14.0086 0.0426502 13.9106 0.0110817 13.8017 0.0118666C13.2017 0.01618 12.2108 -0.00930882 11.7037 0.0342188C11.4161 0.00363159 11.371 0.310286 11.3721 0.522042V7.95312C11.3698 8.36938 11.2781 8.96484 11.996 8.99994C12.151 9.00759 14.3791 9.01504 14.5518 8.99543C14.7737 8.97014 14.9936 8.78505 14.9704 8.55741Z" fill="#927575"/>
        <path fill-rule="evenodd" clip-rule="evenodd" d="M14.058 0.0396509C14.2184 0.034749 14.3685 0.165333 14.4241 0.273955C14.4989 0.419636 14.485 0.619431 14.4967 0.79413C14.5227 1.15137 14.5472 1.51626 14.5657 1.87428C14.5914 2.3774 15.0038 8.28579 14.9714 8.44598C15.006 8.3905 14.9979 8.27697 14.9987 8.20815V6.36509C15.003 5.65923 14.9963 4.95338 14.9987 4.24752C15.0024 2.83581 14.9987 1.42411 14.9987 0.0123968C14.9008 0.0116129 14.1436 -0.0160332 14.058 0.0396509Z" fill="#FBFAF9"/>
    </g>
    <defs>
        <clipPath id="clip0">
            <rect width="15" height="15" fill="white" transform="translate(15 15) rotate(-180)"/>
        </clipPath>
    </defs>
</svg>
