<svg width="15" height="15" viewBox="0 0 15 15" fill="none" xmlns="http://www.w3.org/2000/svg">
    <path d="M12.1535 1.69811H9.48096V0.849057C9.48096 0.380943 9.10001 0 8.6319 0H6.36775C5.89964 0 5.51869 0.380943 5.51869 0.849057V1.69811H2.84615C2.29115 1.69811 1.83945 2.14981 1.83945 2.70481V3.96226H2.40548H12.5942H13.1602V2.70481C13.1602 2.14981 12.7085 1.69811 12.1535 1.69811ZM8.91492 1.69811H6.08473V0.849057C6.08473 0.69283 6.21181 0.566038 6.36775 0.566038H8.6319C8.78784 0.566038 8.91492 0.69283 8.91492 0.849057V1.69811Z" fill="#927575"/>
    <path d="M2.40589 13.9445C2.40589 14.5264 2.87938 14.9999 3.46127 14.9999H11.5389C12.1211 14.9999 12.5943 14.5264 12.5943 13.9445V4.5282H2.40561V13.9445H2.40589Z" fill="#927575"/>
</svg>
