<svg width="15" height="15" viewBox="0 0 15 15" fill="none" xmlns="http://www.w3.org/2000/svg">
    <path d="M11.0175 3.75H1.4825C0.665 3.75 0 4.415 0 5.23225V10.5175C0 11.335 0.665 12 1.4825 12H3V14.5C3 14.6032 3.0635 14.696 3.16 14.7332C3.18925 14.7445 3.21975 14.75 3.25 14.75C3.319 14.75 3.38675 14.7213 3.435 14.6683L5.8605 12H11.0175C11.835 12 12.5 11.335 12.5 10.5177V5.2325C12.5 4.415 11.835 3.75 11.0175 3.75Z" fill="#927575"/>
    <path d="M13.5175 0.25H3.9825C3.16375 0.25 2.5 0.91375 2.5 1.7325V3C2.5 3.138 2.612 3.25 2.75 3.25H11.1645C12.1783 3.25 13 4.07175 13 5.0855V8.25C13 8.388 13.112 8.5 13.25 8.5H14.2675C14.672 8.5 15 8.172 15 7.7675V1.7325C15 0.91375 14.3363 0.25 13.5175 0.25Z" fill="#927575"/>
</svg>
