<svg width="15" height="15" viewBox="0 0 15 15" fill="none" xmlns="http://www.w3.org/2000/svg">
<g clip-path="url(#clip0)">
<path fill-rule="evenodd" clip-rule="evenodd" d="M7.82995 0.538492C7.64597 1.25356 7.91818 1.92393 7.03887 3.4223C6.79547 3.83719 6.45064 4.3007 6.13198 4.66264C5.91291 4.91126 5.60662 5.23988 5.36119 5.44693C5.30236 5.49653 5.25267 5.53359 5.20094 5.58594C5.13157 5.65594 5.09648 5.67202 5.02893 5.73319C4.98167 5.77593 4.92285 5.82613 4.86666 5.86926C4.81717 5.90652 4.73705 5.95848 4.69384 6.00789C4.66768 6.84511 4.68776 7.73488 4.69242 8.57641V13.7331C4.69242 13.9527 4.69242 14.1021 4.7835 14.2848C4.84922 14.4166 4.99344 14.5534 5.0977 14.6277C5.25713 14.7413 5.83137 15.012 6.07762 14.9632C6.17599 14.9632 6.3119 14.9881 6.4482 14.9879H10.9076C11.3431 14.9879 12.1326 15.0287 12.5066 14.9607C12.9285 14.975 13.4093 13.7586 13.5194 13.3776C13.9427 11.9129 14.264 10.8161 14.619 9.30344C14.7048 8.93777 15.045 7.39097 14.9945 7.08039C14.9745 6.99984 14.9745 6.91586 14.9945 6.8353C15.0462 6.49767 14.7308 6.12102 14.3121 6.02887C13.9841 5.95671 13.237 5.99867 12.8535 5.9973C12.2583 5.99514 10.2638 6.0273 9.85672 5.99279C9.89587 5.7526 9.99668 5.44163 10.0563 5.18615C10.2616 4.30658 10.3938 3.39858 10.3462 2.48293C10.3011 1.61845 10.0711 0.890635 9.46747 0.342029C8.97843 -0.102267 8.01676 -0.189322 7.82995 0.538492Z" fill="#927575"/>
<path fill-rule="evenodd" clip-rule="evenodd" d="M0.0292068 6.44271V6.55408C-0.00365328 6.71486 0.40872 12.6227 0.434886 13.1258C0.453142 13.4836 0.477888 13.8485 0.503852 14.2059C0.516631 14.3806 0.50162 14.5804 0.576468 14.7261C0.632249 14.8347 0.782351 14.9653 0.942594 14.9604C0.991073 14.9575 1.08904 14.989 1.19797 14.9883C1.79797 14.9839 2.78884 15.0094 3.29594 14.9659C3.58357 14.9965 3.6286 14.6898 3.62758 14.4781V7.047C3.62981 6.63075 3.7215 6.03528 3.00365 6.00018C2.84868 5.99254 0.620485 5.98508 0.447868 6.00469C0.225961 6.02998 0.00608303 6.21508 0.0292068 6.44271Z" fill="#927575"/>
<path fill-rule="evenodd" clip-rule="evenodd" d="M0.942394 14.9603C0.781947 14.9652 0.631846 14.8346 0.576268 14.726C0.50142 14.5803 0.515416 14.3805 0.503651 14.2058C0.477688 13.8486 0.453144 13.4837 0.434686 13.1257C0.408925 12.6225 -0.00344815 6.71414 0.0290062 6.55396C-0.00567939 6.60944 0.00243408 6.72297 0.00162272 6.79179V8.63485C-0.00263692 9.34071 0.00405679 10.0466 0.00162272 10.7524C-0.0020284 12.1641 0.00162272 13.5758 0.00162272 14.9875C0.0995943 14.9883 0.856795 15.016 0.942394 14.9603Z" fill="#FBFAF9"/>
</g>
<defs>
<clipPath id="clip0">
<rect width="15" height="15" fill="white"/>
</clipPath>
</defs>
</svg>
