<svg width="16" height="32" viewBox="0 0 16 32" fill="none" xmlns="http://www.w3.org/2000/svg">
    <g clip-path="url(#clip0)">
        <path fill-rule="evenodd" clip-rule="evenodd" d="M1.72 32.0049C0.917173 32.0049 -0.0012207 31.7546 -0.0012207 30.652C-0.0012207 29.6603 1.97573 27.8677 2.91871 26.8301C4.17274 25.4501 12.249 16.7185 12.6621 16.0407C12.2514 15.3643 2.98264 5.32176 1.44338 3.62793C1.01184 3.15307 -0.0012207 2.35757 -0.0012207 1.56477C-0.0012207 0.347166 1.26634 -0.464569 2.12449 0.306581L14.2296 13.5041C16.9651 16.5142 16.6012 15.8324 12.6313 20.2009L3.65638 30.077C3.3232 30.4409 2.13064 32.0049 1.72 32.0049Z" fill="#4F4C4C"/>
    </g>
    <defs>
        <clipPath id="clip0">
            <rect width="32" height="16" fill="white" transform="matrix(0 -1 -1 0 16 32)"/>
        </clipPath>
    </defs>
</svg>
